Cluster
…
#——————————————————————# # 1. ANÁLISIS CLUSTER JERÁRQUICOS
AGLOMERATIVO # #——————————————————————#

library(readxl)
Depar <- read_excel("Departamentos.xlsx")
Depar

## # A tibble: 23 × 10
##    Departamento Tinic Tprim  Tsec TDesn Tefic Inter TAnalf Tmort EVida
##    <chr>        <dbl> <dbl> <dbl> <dbl> <dbl> <dbl>  <dbl> <dbl> <dbl>
##  1 Junín         37.3  89.3  73.3  13.7  90.9   0.1   29.8  12.2  72.4
##  2 Piura         76    89.8  76.5   8.6  84.6   5.3   30.8  10.9  76.8
##  3 Pasco         50.8  89.6  62.5  25.9  83.5   0.3   31.1  11.1  69.8
##  4 Arequipa      63.2  93.1  81.8  20.2  83.1  13     22.7  10.9  76  
##  5 Ayacucho      39.6  89.9  57.7  24.9  78.9   1.6   27.1  12.5  69.4
##  6 San Martín    40.5  92.8  57.9  17.1  83.4   4.2   25.9  12    75.3
##  7 Huánuco       24.9  89    48.6  14.3  86.8   1.8   29.5  11.3  74  
##  8 Ancash        55.5  87.7  59.4  20.4  80.9   0.1   26.8  11.4  68.2
##  9 Ica           44.8  94.5  81.3   9.5  89.3   0.5   37.8  12.0  71  
## 10 Tumbes        41.5  90.4  65.3  15.1  87.8   0.9   33.8  11.2  64.2
## # ℹ 13 more rows
…
